^D:\C++\VECTOR\VECTOR\MAIN.CPP
C:\WINDOWS\GLOBALIZATION\SORTING\SORTDEFAULT.NLS
M:\TOOL\DEVELOP\VS 2015\VC\BIN\1042\CLUI.DLL
C:\WINDOWS\SYSTEM32\TZRES.DLL
M:\TOOL\DEVELOP\VS 2015\VC\INCLUDE\IOSTREAM
M:\TOOL\DEVELOP\VS 2015\VC\INCLUDE\ISTREAM
M:\TOOL\DEVELOP\VS 2015\VC\INCLUDE\OSTREAM
M:\TOOL\DEVELOP\VS 2015\VC\INCLUDE\IOS
M:\TOOL\DEVELOP\VS 2015\VC\INCLUDE\XLOCNUM
M:\TOOL\DEVELOP\VS 2015\VC\INCLUDE\CLIMITS
M:\TOOL\DEVELOP\VS 2015\VC\INCLUDE\YVALS.H
M:\TOOL\DEVELOP\VS 2015\VC\INCLUDE\XKEYCHECK.H
M:\TOOL\DEVELOP\VS 2015\VC\INCLUDE\CRTDEFS.H
M:\TOOL\DEVELOP\VS 2015\VC\INCLUDE\VCRUNTIME.H
M:\TOOL\DEVELOP\VS 2015\VC\INCLUDE\SAL.H
M:\TOOL\DEVELOP\VS 2015\VC\INCLUDE\CONCURRENCYSAL.H
M:\TOOL\DEVELOP\VS 2015\VC\INCLUDE\VADEFS.H
C:\PROGRAM FILES (X86)\WINDOWS KITS\10\INCLUDE\10.0.10240.0\UCRT\CORECRT.H
M:\TOOL\DEVELOP\VS 2015\VC\INCLUDE\USE_ANSI.H
M:\TOOL\DEVELOP\VS 2015\VC\INCLUDE\LIMITS.H
M:\TOOL\DEVELOP\VS 2015\VC\INCLUDE\CMATH
C:\PROGRAM FILES (X86)\WINDOWS KITS\10\INCLUDE\10.0.10240.0\UCRT\MATH.H
M:\TOOL\DEVELOP\VS 2015\VC\INCLUDE\XTGMATH.H
M:\TOOL\DEVELOP\VS 2015\VC\INCLUDE\XTR1COMMON
M:\TOOL\DEVELOP\VS 2015\VC\INCLUDE\CSTDLIB
C:\PROGRAM FILES (X86)\WINDOWS KITS\10\INCLUDE\10.0.10240.0\UCRT\STDLIB.H
C:\PROGRAM FILES (X86)\WINDOWS KITS\10\INCLUDE\10.0.10240.0\UCRT\CORECRT_MALLOC.H
C:\PROGRAM FILES (X86)\WINDOWS KITS\10\INCLUDE\10.0.10240.0\UCRT\CORECRT_SEARCH.H
C:\PROGRAM FILES (X86)\WINDOWS KITS\10\INCLUDE\10.0.10240.0\UCRT\STDDEF.H
C:\PROGRAM FILES (X86)\WINDOWS KITS\10\INCLUDE\10.0.10240.0\UCRT\CORECRT_WSTDLIB.H
M:\TOOL\DEVELOP\VS 2015\VC\INCLUDE\CSTDIO
C:\PROGRAM FILES (X86)\WINDOWS KITS\10\INCLUDE\10.0.10240.0\UCRT\STDIO.H
C:\PROGRAM FILES (X86)\WINDOWS KITS\10\INCLUDE\10.0.10240.0\UCRT\CORECRT_WSTDIO.H
C:\PROGRAM FILES (X86)\WINDOWS KITS\10\INCLUDE\10.0.10240.0\UCRT\CORECRT_STDIO_CONFIG.H
M:\TOOL\DEVELOP\VS 2015\VC\INCLUDE\STREAMBUF
M:\TOOL\DEVELOP\VS 2015\VC\INCLUDE\XIOSBASE
M:\TOOL\DEVELOP\VS 2015\VC\INCLUDE\XLOCALE
M:\TOOL\DEVELOP\VS 2015\VC\INCLUDE\CSTRING
C:\PROGRAM FILES (X86)\WINDOWS KITS\10\INCLUDE\10.0.10240.0\UCRT\STRING.H
C:\PROGRAM FILES (X86)\WINDOWS KITS\10\INCLUDE\10.0.10240.0\UCRT\CORECRT_MEMORY.H
C:\PROGRAM FILES (X86)\WINDOWS KITS\10\INCLUDE\10.0.10240.0\UCRT\CORECRT_MEMCPY_S.H
C:\PROGRAM FILES (X86)\WINDOWS KITS\10\INCLUDE\10.0.10240.0\UCRT\ERRNO.H
M:\TOOL\DEVELOP\VS 2015\VC\INCLUDE\VCRUNTIME_STRING.H
C:\PROGRAM FILES (X86)\WINDOWS KITS\10\INCLUDE\10.0.10240.0\UCRT\CORECRT_WSTRING.H
M:\TOOL\DEVELOP\VS 2015\VC\INCLUDE\STDEXCEPT
M:\TOOL\DEVELOP\VS 2015\VC\INCLUDE\EXCEPTION
M:\TOOL\DEVELOP\VS 2015\VC\INCLUDE\TYPE_TRAITS
M:\TOOL\DEVELOP\VS 2015\VC\INCLUDE\XSTDDEF
M:\TOOL\DEVELOP\VS 2015\VC\INCLUDE\CSTDDEF
M:\TOOL\DEVELOP\VS 2015\VC\INCLUDE\INITIALIZER_LIST
C:\PROGRAM FILES (X86)\WINDOWS KITS\10\INCLUDE\10.0.10240.0\UCRT\MALLOC.H
M:\TOOL\DEVELOP\VS 2015\VC\INCLUDE\VCRUNTIME_EXCEPTION.H
M:\TOOL\DEVELOP\VS 2015\VC\INCLUDE\EH.H
C:\PROGRAM FILES (X86)\WINDOWS KITS\10\INCLUDE\10.0.10240.0\UCRT\CORECRT_TERMINATE.H
M:\TOOL\DEVELOP\VS 2015\VC\INCLUDE\XSTRING
M:\TOOL\DEVELOP\VS 2015\VC\INCLUDE\XMEMORY0
M:\TOOL\DEVELOP\VS 2015\VC\INCLUDE\CSTDINT
M:\TOOL\DEVELOP\VS 2015\VC\INCLUDE\STDINT.H
M:\TOOL\DEVELOP\VS 2015\VC\INCLUDE\LIMITS
M:\TOOL\DEVELOP\VS 2015\VC\INCLUDE\YMATH.H
M:\TOOL\DEVELOP\VS 2015\VC\INCLUDE\CFLOAT
C:\PROGRAM FILES (X86)\WINDOWS KITS\10\INCLUDE\10.0.10240.0\UCRT\FLOAT.H
M:\TOOL\DEVELOP\VS 2015\VC\INCLUDE\CWCHAR
C:\PROGRAM FILES (X86)\WINDOWS KITS\10\INCLUDE\10.0.10240.0\UCRT\WCHAR.H
C:\PROGRAM FILES (X86)\WINDOWS KITS\10\INCLUDE\10.0.10240.0\UCRT\CORECRT_WCONIO.H
C:\PROGRAM FILES (X86)\WINDOWS KITS\10\INCLUDE\10.0.10240.0\UCRT\CORECRT_WCTYPE.H
C:\PROGRAM FILES (X86)\WINDOWS KITS\10\INCLUDE\10.0.10240.0\UCRT\CORECRT_WDIRECT.H
C:\PROGRAM FILES (X86)\WINDOWS KITS\10\INCLUDE\10.0.10240.0\UCRT\CORECRT_WIO.H
C:\PROGRAM FILES (X86)\WINDOWS KITS\10\INCLUDE\10.0.10240.0\UCRT\CORECRT_SHARE.H
C:\PROGRAM FILES (X86)\WINDOWS KITS\10\INCLUDE\10.0.10240.0\UCRT\CORECRT_WPROCESS.H
C:\PROGRAM FILES (X86)\WINDOWS KITS\10\INCLUDE\10.0.10240.0\UCRT\CORECRT_WTIME.H
C:\PROGRAM FILES (X86)\WINDOWS KITS\10\INCLUDE\10.0.10240.0\UCRT\SYS\STAT.H
C:\PROGRAM FILES (X86)\WINDOWS KITS\10\INCLUDE\10.0.10240.0\UCRT\SYS\TYPES.H
M:\TOOL\DEVELOP\VS 2015\VC\INCLUDE\NEW
M:\TOOL\DEVELOP\VS 2015\VC\INCLUDE\VCRUNTIME_NEW.H
M:\TOOL\DEVELOP\VS 2015\VC\INCLUDE\XUTILITY
M:\TOOL\DEVELOP\VS 2015\VC\INCLUDE\UTILITY
M:\TOOL\DEVELOP\VS 2015\VC\INCLUDE\IOSFWD
C:\PROGRAM FILES (X86)\WINDOWS KITS\10\INCLUDE\10.0.10240.0\UCRT\CRTDBG.H
M:\TOOL\DEVELOP\VS 2015\VC\INCLUDE\VCRUNTIME_NEW_DEBUG.H
M:\TOOL\DEVELOP\VS 2015\VC\INCLUDE\XATOMIC0.H
M:\TOOL\DEVELOP\VS 2015\VC\INCLUDE\INTRIN.H
M:\TOOL\DEVELOP\VS 2015\VC\INCLUDE\SETJMP.H
M:\TOOL\DEVELOP\VS 2015\VC\INCLUDE\IMMINTRIN.H
M:\TOOL\DEVELOP\VS 2015\VC\INCLUDE\WMMINTRIN.H
M:\TOOL\DEVELOP\VS 2015\VC\INCLUDE\NMMINTRIN.H
M:\TOOL\DEVELOP\VS 2015\VC\INCLUDE\SMMINTRIN.H
M:\TOOL\DEVELOP\VS 2015\VC\INCLUDE\TMMINTRIN.H
M:\TOOL\DEVELOP\VS 2015\VC\INCLUDE\PMMINTRIN.H
M:\TOOL\DEVELOP\VS 2015\VC\INCLUDE\EMMINTRIN.H
M:\TOOL\DEVELOP\VS 2015\VC\INCLUDE\XMMINTRIN.H
M:\TOOL\DEVELOP\VS 2015\VC\INCLUDE\MMINTRIN.H
M:\TOOL\DEVELOP\VS 2015\VC\INCLUDE\AMMINTRIN.H
M:\TOOL\DEVELOP\VS 2015\VC\INCLUDE\MM3DNOW.H
M:\TOOL\DEVELOP\VS 2015\VC\INCLUDE\TYPEINFO
M:\TOOL\DEVELOP\VS 2015\VC\INCLUDE\VCRUNTIME_TYPEINFO.H
M:\TOOL\DEVELOP\VS 2015\VC\INCLUDE\XLOCINFO
M:\TOOL\DEVELOP\VS 2015\VC\INCLUDE\XLOCINFO.H
C:\PROGRAM FILES (X86)\WINDOWS KITS\10\INCLUDE\10.0.10240.0\UCRT\CTYPE.H
C:\PROGRAM FILES (X86)\WINDOWS KITS\10\INCLUDE\10.0.10240.0\UCRT\LOCALE.H
M:\TOOL\DEVELOP\VS 2015\VC\INCLUDE\XFACET
M:\TOOL\DEVELOP\VS 2015\VC\INCLUDE\SYSTEM_ERROR
M:\TOOL\DEVELOP\VS 2015\VC\INCLUDE\CERRNO
C:\PROGRAM FILES (X86)\WINDOWS KITS\10\INCLUDE\10.0.10240.0\UCRT\SHARE.H
M:\TOOL\DEVELOP\VS 2015\VC\INCLUDE\VECTOR
M:\TOOL\DEVELOP\VS 2015\VC\INCLUDE\XMEMORY
