^D:\C++\OPERATER STRUCT\OPERATER STRUCT\MAIN.CPP
D:\C++\OPERATER STRUCT\OPERATER STRUCT\DEBUG\VC140.PDB
D:\C++\OPERATER STRUCT\OPERATER STRUCT\DEBUG\VC140.IDB
D:\C++\OPERATER STRUCT\OPERATER STRUCT\DEBUG\MAIN.OBJ
